{
  "names": [
    "Troll chucker"
  ],
  "attackAnim": 13786,
  "attackSound": -1,
  "defenceAnim": 13792,
  "defendSound": -1,
  "deathAnim": 13785,
  "deathDelay": 6,
  "deathSound": -1,
  "respawnDelay": 59,
  "hitpoints": 50,
  "maxHit": 15,
  "attackStyle": "MELEE",
  "attackRange": -1,
  "attackGfx": -1,
  "attackProjectile": -1,
  "agressivenessType": "PASSIVE",
  "aggroDistance": 4,
  "deAggroDistance": -1,
  "maxDistFromSpawn": -1
}